# This file was automatically created by FeynRules 1.7.100
# Mathematica version: 7.0 for Linux x86 (64-bit) (February 18, 2009)
# Date: Wed 28 Nov 2012 10:15:12


# 
# This is the logfile for the model MonoTops

# Authors: Benjamin Fuks
# Model version: 1.0.0
# Checking the Quantum numbers
   * Electric charge defined.
# Checking the Lagrangians
   * All Lagrangians are ok.
#
# Particle definitions
#

   * No particles removed. All particles correspond to GenInt setup.

# Automatically assigned PDG numbers
   * Assigned PDG number 9000007 to particle ghA
   * Assigned PDG number 9000008 to particle ghZ
   * Assigned PDG number 9000009 to particle ghWp
   * Assigned PDG number 9000010 to particle ghWm
   * Assigned PDG number 9000011 to particle ghG


# Compulsory PDG codes:
   * Class SM leptons complete.
   * Class SM neutrinos complete.
   * Class SM quarks complete.
   * Class SM gauge bosons complete.
#
# Parameter definitions
#

   * All parameters are ok.


# Vertices
   * Calling FeynmanRules for 1 Lagrangians.
   * Number of classes vertices: 41
   * Number of flavored vertices: 123
   * Saved vertices in InterfaceRun[ 1 ].
   * Checked QNumber conservation.
      - Quantum number GhostNumber conserved in all vertices.
      - Quantum number LeptonNumber conserved in all vertices.
      - Quantum number Q conserved in all vertices.
      - Quantum number Y conserved in all vertices.
   * particles.py written.
   * parameters.py written.
#
# Vertex definitions
#

   * 123 vertices written.
   * vertices.py written.
#
# Lorentz structure definitions
#

   * 20 lorentz structures written.
   * lorentz.py written.
#
# Coupling definitions
#

   * 114 couplings written.
   * couplings.py written.
#
# Coupling order definitions
#

   * 0 couplings orders written.
   * coupling_orders.py written.
#
# Decay definitions
#

   * 17 decays written.
   * decay.py not written
#
# Form Factor definitions
#

   * 0 form factors written.
   * form_factors.py written.
